{
  "$schema": "http://json-schema.org/draft-07/schema#",
  "title": "GroupResponse",
  "type": "object",
  "additionalProperties": false,
  "properties": {
    "id": {},
    "name": {
      "type": "string"
    },
    "leader": {
      "type": "string"
    },
    "members": {
      "type": "array",
      "items": {}
    },
    "departmentId": {},
    "createdAt": {
      "type": "number"
    },
    "updatedAt": {
      "type": "number"
    }
  },
  "required": ["name", "members", "departmentId", "createdAt", "updatedAt"]
}
